<svg width="386" height="368" viewBox="0 0 386 368" fill="none" xmlns="http://www.w3.org/2000/svg">
<rect width="386" height="368" fill="#E5E5E5"/>
<g id="right-hand">
<path id="Rectangle 1" d="M100.491 164.987L55.3817 223.648C47.3017 234.155 32.2337 236.123 21.7263 228.043C11.219 219.963 9.25129 204.895 17.3313 194.387L62.441 135.726C70.521 125.219 85.589 123.251 96.0963 131.331C106.604 139.411 108.571 154.479 100.491 164.987Z" fill="#03696B" stroke="black"/>
<path id="Polygon 11" d="M37.5738 230.919L29.833 243.914L30.0807 228.79L37.5738 230.919Z" fill="white" stroke="black" stroke-width="2"/>
<path id="Polygon 10" d="M23.5522 225.134L11.083 233.697L17.6379 220.065L23.5522 225.134Z" fill="white" stroke="black" stroke-width="2"/>
<path id="Polygon 9" d="M18.8567 211.98L3.84334 213.825L15.9479 204.754L18.8567 211.98Z" fill="white" stroke="black" stroke-width="2"/>
</g>
<g id="left-hand">
<rect id="Rectangle 2" x="269.702" y="146.196" width="48" height="122" rx="24" transform="rotate(-37.9124 269.702 146.196)" fill="#03696B" stroke="black"/>
<path id="Polygon 8" d="M370.25 201.113L382.392 210.135L367.371 208.351L370.25 201.113Z" fill="white" stroke="black" stroke-width="2"/>
<path id="Polygon 12" d="M368.209 214.973L377.611 226.822L363.56 221.223L368.209 214.973Z" fill="white" stroke="black" stroke-width="2"/>
<path id="Polygon 13" d="M358.351 226.502L362.615 241.015L351.695 230.549L358.351 226.502Z" fill="white" stroke="black" stroke-width="2"/>
</g>
<g id="Head">
<path id="Polygon 15" d="M218.964 20.8519L260.698 1.74592L256.377 47.4415L218.964 20.8519Z" fill="#03696B" stroke="black"/>
<path id="Polygon 14" d="M126.441 52.5131L121.932 6.83574L163.745 25.7696L126.441 52.5131Z" fill="#03696B" stroke="black"/>
<path id="Ellipse 9" d="M265 80.9194C263.251 91.6632 261.954 99.0853 259.98 104.253C258.998 106.823 257.867 108.782 256.469 110.291C255.077 111.793 253.384 112.89 251.218 113.686C246.821 115.301 240.549 115.656 231.063 115.578C227.552 115.549 223.599 115.461 219.157 115.362C211.713 115.196 202.899 115 192.5 115C184.179 115 176.867 115.109 170.437 115.219C169.562 115.234 168.703 115.249 167.861 115.263C162.509 115.356 157.809 115.438 153.664 115.438C144.028 115.438 137.562 114.991 133.035 113.312C130.801 112.484 129.06 111.361 127.65 109.849C126.235 108.332 125.114 106.381 124.181 103.843C122.303 98.7338 121.251 91.4399 120 80.9409C120.031 50.5862 143.58 18 192.5 18C219.035 18 237.13 26.1951 248.592 38.0958C260.047 49.9884 264.983 65.6879 265 80.9194Z" fill="#03696B" stroke="black" stroke-width="2"/>
<g id="face-inside">
<ellipse id="Ellipse 10" cx="192.5" cy="81.5" rx="51.5" ry="48.5" fill="#FEEAC1"/>
<path id="Polygon 8_2" d="M192 54L172.947 33L211.053 33L192 54Z" fill="#03696B"/>
</g>
<g id="mouth">
<path id="Vector 1" d="M211.223 80.9575C205.659 87.3587 191.282 96.3773 178.284 81.2419" stroke="black" stroke-width="2"/>
</g>
<g id="left-eye">
<line id="Line 1" x1="206" y1="60" x2="230" y2="60" stroke="black" stroke-width="2"/>
</g>
<g id="right-eye">
<line id="Line 1_2" x1="158" y1="60" x2="182" y2="60" stroke="black" stroke-width="2"/>
</g>
</g>
<g id="body-main">
<path id="Ellipse 1" d="M67.4096 227.5C67.4096 187.011 81.5347 154.401 104.31 131.913C127.089 109.421 158.58 97 193.41 97C228.239 97 259.73 109.421 282.51 131.913C305.285 154.401 319.41 187.011 319.41 227.5C319.41 267.971 305.303 294.771 282.619 311.493C259.881 328.255 228.378 335 193.41 335C158.441 335 126.939 328.255 104.2 311.493C81.5167 294.771 67.4096 267.971 67.4096 227.5Z" fill="#03696B" stroke="black" stroke-width="2"/>
<path id="Ellipse 8" d="M300 214.05C299.997 221.324 299.248 226.693 297.865 230.55C296.488 234.393 294.503 236.684 292.032 237.92C289.532 239.17 286.382 239.418 282.537 238.858C278.696 238.299 274.264 236.949 269.272 235.118C265.312 233.665 261.017 231.913 256.422 230.039C237.954 222.507 214.645 213 188.807 213C162.597 213 139.722 222.779 121.987 230.36C117.881 232.116 114.05 233.754 110.517 235.125C105.798 236.956 101.644 238.302 98.0647 238.86C94.4843 239.417 91.5922 239.167 89.3111 237.934C87.0508 236.713 85.2229 234.435 83.9547 230.575C82.6858 226.713 82.005 221.345 82 214.079C89.9914 164.186 102.675 135.25 121.142 118.746C139.595 102.254 164.019 98 196 98C227.906 98 251.578 104.724 268.425 122.439C285.302 140.187 295.504 169.145 300 214.05Z" fill="#FEEAC1" stroke="black" stroke-width="2"/>
</g>
<g id="left-leg">
<path id="Ellipse 3" d="M313 335.5C313 352.869 298.478 367 280.5 367C262.522 367 248 352.869 248 335.5C248 318.131 262.522 304 280.5 304C298.478 304 313 318.131 313 335.5Z" fill="#FEEAC1" stroke="black" stroke-width="2"/>
<path id="Polygon 7" d="M292.181 310.549L302.092 299.122L299.182 313.965L292.181 310.549Z" fill="white" stroke="black" stroke-width="2"/>
<path id="Polygon 6" d="M278.641 306.528L285.532 293.062L286.255 308.171L278.641 306.528Z" fill="white" stroke="black" stroke-width="2"/>
<path id="Ellipse 7" d="M297 335C297 343.228 289.895 350 281 350C272.105 350 265 343.228 265 335C265 326.772 272.105 320 281 320C289.895 320 297 326.772 297 335Z" fill="#704619" stroke="black" stroke-width="2"/>
<path id="Polygon 5" d="M305.843 318.411L319.034 311.009L311.276 323.994L305.843 318.411Z" fill="white" stroke="black" stroke-width="2"/>
</g>
<g id="right-leg">
<path id="Ellipse 2" d="M132 335.016C132 352.385 117.478 366.516 99.5 366.516C81.522 366.516 67 352.385 67 335.016C67 317.647 81.522 303.516 99.5 303.516C117.478 303.516 132 317.647 132 335.016Z" fill="#FEEAC1" stroke="black" stroke-width="2"/>
<path id="Polygon 4" d="M99.4078 308.503L99.149 293.379L106.899 306.369L99.4078 308.503Z" fill="white" stroke="black" stroke-width="2"/>
<path id="Polygon 3" d="M82.6611 314.543L79.1255 299.836L89.5107 310.834L82.6611 314.543Z" fill="white" stroke="black" stroke-width="2"/>
<path id="Polygon 2" d="M72.9241 325.557L66.0593 312.078L78.721 320.354L72.9241 325.557Z" fill="white" stroke="black" stroke-width="2"/>
<path id="Ellipse 6" d="M118 336C118 344.228 110.895 351 102 351C93.1055 351 86 344.228 86 336C86 327.772 93.1055 321 102 321C110.895 321 118 327.772 118 336Z" fill="#704619" stroke="black" stroke-width="2"/>
</g>
</svg>
